Chi Square
…
```
## # A tibble: 2 × 2
##   Gender     n
##   <fct>  <int>
## 1 female   499
## 2 male     501
```

```r
nhanes %>% select(Age)
```

```
## # A tibble: 1,000 × 1
##      Age
##    <int>
##  1    28
##  2    80
##  3    45
##  4    63
##  5    58
##  6    56
##  7    56
##  8    76
##  9    14
## 10     1
## # … with 990 more rows
```
…
