Data Wrangling in R
…
# Unite

Unite is essentially the opposite of separate. It acts much like paste would work, where it combines two (or more) separate columns into one while separating with a specific value

```r
# Let's pretend we want to unite the date columns back together in 
# a different format
surveys_edit %>% 
  unite(col = date, c("month", "day", "year"), sep = "/", remove = FALSE) %>% 
  select(date, month, day, year)
```

```
## # A tibble: 28,364 × 4
##    date       month day   year 
##    <chr>      <chr> <chr> <chr>
##  1 01/08/1978 01    08    1978 
##  2 01/08/1978 01    08    1978 
##  3 01/08/1978 01    08    1978 
##  4 01/08/1978 01    08    1978 
##  5 01/08/1978 01    08    1978 
##  6 01/08/1978 01    08    1978 
##  7 01/08/1978 01    08    1978 
##  8 01/08/1978 01    08    1978 
##  9 01/08/1978 01    08    1978 
## 10 01/08/1978 01    08    1978 
## # … with 28,354 more rows
```
…
---

```r
replace_function <- function(x) {
  ifelse(is.na(x), -1, x)
}

surveys_edit %>% 
  select(7:9) %>% 
  mutate_all(replace_function)
```

```
## # A tibble: 28,364 × 3
##    sex     hfl   wgt
##    <chr> <dbl> <dbl>
##  1 -1       -1    -1
##  2 -1       -1    -1
##  3 M        15     7
##  4 -1       -1    -1
##  5 M        36    40
##  6 F        34    37
##  7 F        47   117
##  8 M        36    40
##  9 M        49   132
## 10 -1       -1    -1
## # … with 28,354 more rows
```
…
