Data Preparation with DPLYR
…
## distinct/count

The distinct function will provide for you the distinct values of a column, while count provides you with both the distinct values of a column and then number of times each value shows up. The following example investigates the different species (`species`) in the `rodents` dataframe:

```r
rodents %>% 
  distinct(species)
```

```
## # A tibble: 21 × 1
##    species
##    <chr>  
##  1 OL     
##  2 <NA>   
##  3 PF     
##  4 OT     
##  5 DM     
##  6 DS     
##  7 RM     
##  8 DO     
##  9 PM     
## 10 PP     
## # … with 11 more rows
```
…
```
## [1] 21
```

--- 

```r
rodents %>% 
  count(species)
```

```
## # A tibble: 21 × 2
##    species     n
##    <chr>   <int>
##  1 BA        211
##  2 DM       7207
##  3 DO       1597
##  4 DS        569
##  5 OL        521
##  6 OT       1593
##  7 PB       4095
##  8 PE        853
##  9 PF       1082
## 10 PH         17
## # … with 11 more rows
```
…
```
## [1] 3
```

```r
  #3

#3. 
rodents %>% 
  count(species)
```

```
## # A tibble: 21 × 2
##    species     n
##    <chr>   <int>
##  1 BA        211
##  2 DM       7207
##  3 DO       1597
##  4 DS        569
##  5 OL        521
##  6 OT       1593
##  7 PB       4095
##  8 PE        853
##  9 PF       1082
## 10 PH         17
## # … with 11 more rows
```
…
## Arrange

The `arrange()` function does what it sounds like. It takes a data frame or tbl and arranges (or sorts) by column(s) of interest. The first argument is the data, and subsequent arguments are columns to sort on. Use the `desc()` function to arrange by descending.

The following code would get the number of times each species shows up in the `rodents` dataset:

```r
rodents %>% 
  count(species) %>% 
  arrange(n)
```

```
## # A tibble: 21 × 2
##    species     n
##    <chr>   <int>
##  1 PH         17
##  2 SO         23
##  3 RF         30
##  4 PL         35
##  5 RO         40
##  6 PI         55
##  7 SF        194
##  8 BA        211
##  9 SH        215
## 10 <NA>      399
## # … with 11 more rows
```

---

```r
# Since the default is ascending order, we are not getting the results that are probably useful, so let's use the desc() function
rodents %>% 
  count(species) %>% 
  arrange(desc(n))
```

```
## # A tibble: 21 × 2
##    species     n
##    <chr>   <int>
##  1 PP       7270
##  2 DM       7207
##  3 PB       4095
##  4 RM       1812
##  5 DO       1597
##  6 OT       1593
##  7 PF       1082
##  8 PE        853
##  9 DS        569
## 10 PM        546
## # … with 11 more rows
```

```r
# Alternatively you can use the "-" to denote descending
rodents %>% 
  count(species) %>% 
  arrange(-n)
```

```
## # A tibble: 21 × 2
##    species     n
##    <chr>   <int>
##  1 PP       7270
##  2 DM       7207
##  3 PB       4095
##  4 RM       1812
##  5 DO       1597
##  6 OT       1593
##  7 PF       1082
##  8 PE        853
##  9 DS        569
## 10 PM        546
## # … with 11 more rows
```
…
---

## select()

Whereas the `filter()` function allows you to return only certain _rows_ matching a condition, the `select()` function returns only certain _columns_. The first argument is the data, and subsequent arguments are the columns you want.

```r
# You can simply list the column names you want to keep 
rodents %>% 
  select(species)
```

```
## # A tibble: 28,364 × 1
##    species
##    <chr>  
##  1 OL     
##  2 <NA>   
##  3 PF     
##  4 OT     
##  5 DM     
##  6 DM     
##  7 DS     
##  8 DM     
##  9 DS     
## 10 OL     
## # … with 28,354 more rows
```

```r
# Multiple columns can be separated by a comma
rodents %>% 
  select(censusdate, species)
```

```
## # A tibble: 28,364 × 2
##    censusdate species
##    <date>     <chr>  
##  1 1978-01-08 OL     
##  2 1978-01-08 <NA>   
##  3 1978-01-08 PF     
##  4 1978-01-08 OT     
##  5 1978-01-08 DM     
##  6 1978-01-08 DM     
##  7 1978-01-08 DS     
##  8 1978-01-08 DM     
##  9 1978-01-08 DS     
## 10 1978-01-08 OL     
## # … with 28,354 more rows
```

---

```r
# Or you can use the - sign to tell dplyr the columns you want to drop
rodents %>% 
  select(-species, -treatment) %>% 
  arrange(desc(censusdate))
```

```
## # A tibble: 28,364 × 4
##    censusdate sex     hfl   wgt
##    <date>     <chr> <dbl> <dbl>
##  1 2022-02-26 M        36    46
##  2 2022-02-26 M        36    44
##  3 2022-02-26 M        37    51
##  4 2022-02-26 M        21    16
##  5 2022-02-26 M        21    19
##  6 2022-02-26 F        38    44
##  7 2022-02-26 F        21    18
##  8 2022-02-26 F        21    14
##  9 2022-02-26 F        35    28
## 10 2022-02-26 F        21    14
## # … with 28,354 more rows
```

```r
# You can also use the select function to rename variables
rodents %>% 
  select(species_name = species, date = censusdate, hfl, wgt)
```

```
## # A tibble: 28,364 × 4
##    species_name date         hfl   wgt
##    <chr>        <date>     <dbl> <dbl>
##  1 OL           1978-01-08    NA    NA
##  2 <NA>         1978-01-08    NA    NA
##  3 PF           1978-01-08    15     7
##  4 OT           1978-01-08    NA    NA
##  5 DM           1978-01-08    36    40
##  6 DM           1978-01-08    34    37
##  7 DS           1978-01-08    47   117
##  8 DM           1978-01-08    36    40
##  9 DS           1978-01-08    49   132
## 10 OL           1978-01-08    NA    NA
## # … with 28,354 more rows
```
…
### starts_with(), ends_with(), contains()

The `starts_with`, `ends_with` and `contains` functions provide very useful tools for dropping/keeping several variables at once without having to list each and every column you want to keep. The function will return columns that either start with a specific string of text, ends with a certain string of text, or contain a certain string of text.

```r
rodents %>% 
  select(starts_with("s"))
```

```
## # A tibble: 28,364 × 2
##    species sex  
##    <chr>   <chr>
##  1 OL      <NA> 
##  2 <NA>    <NA> 
##  3 PF      M    
##  4 OT      <NA> 
##  5 DM      M    
##  6 DM      F    
##  7 DS      F    
##  8 DM      M    
##  9 DS      M    
## 10 OL      <NA> 
## # … with 28,354 more rows
```

```r
rodents %>% 
  select(-ends_with("e"), -ends_with("t"))
```

```
## # A tibble: 28,364 × 3
##    species sex     hfl
##    <chr>   <chr> <dbl>
##  1 OL      <NA>     NA
##  2 <NA>    <NA>     NA
##  3 PF      M        15
##  4 OT      <NA>     NA
##  5 DM      M        36
##  6 DM      F        34
##  7 DS      F        47
##  8 DM      M        36
##  9 DS      M        49
## 10 OL      <NA>     NA
## # … with 28,354 more rows
```

```r
rodents %>% 
  select(contains("m"))
```

```
## # A tibble: 28,364 × 1
##    treatment
##    <chr>    
##  1 exclosure
##  2 exclosure
##  3 exclosure
##  4 control  
##  5 control  
##  6 control  
##  7 control  
##  8 control  
##  9 control  
## 10 control  
## # … with 28,354 more rows
```
…
```
## [1] "censusdate" "species"    "treatment"  "sex"       
## [5] "hfl"        "wgt"
```

```r
vars <- c( "species", "treatment", "hfl", "wgt")

rodents %>% 
  select(all_of(vars))
```

```
## # A tibble: 28,364 × 4
##    species treatment   hfl   wgt
##    <chr>   <chr>     <dbl> <dbl>
##  1 OL      exclosure    NA    NA
##  2 <NA>    exclosure    NA    NA
##  3 PF      exclosure    15     7
##  4 OT      control      NA    NA
##  5 DM      control      36    40
##  6 DM      control      34    37
##  7 DS      control      47   117
##  8 DM      control      36    40
##  9 DS      control      49   132
## 10 OL      control      NA    NA
## # … with 28,354 more rows
```

```r
rodents %>% 
  select(-vars)
```

```
## # A tibble: 28,364 × 2
##    censusdate sex  
##    <date>     <chr>
##  1 1978-01-08 <NA> 
##  2 1978-01-08 <NA> 
##  3 1978-01-08 M    
##  4 1978-01-08 <NA> 
##  5 1978-01-08 M    
##  6 1978-01-08 F    
##  7 1978-01-08 F    
##  8 1978-01-08 M    
##  9 1978-01-08 M    
## 10 1978-01-08 <NA> 
## # … with 28,354 more rows
```
---

However, you can go ahead and combine `filter` and `select` to subset your data even further.

```r
rodents %>% 
  filter(species %in% specs) %>% 
  select(vars)
```

```
## # A tibble: 4,858 × 4
##    species treatment   hfl   wgt
##    <chr>   <chr>     <dbl> <dbl>
##  1 DS      control      47   117
##  2 DS      control      49   132
##  3 DS      control      50   126
##  4 DS      control      51   122
##  5 DS      control      48   116
##  6 DS      control      50   133
##  7 DS      control      53   136
##  8 DS      control      49    NA
##  9 DS      control      NA    NA
## 10 DS      control      49   124
## # … with 4,848 more rows
```
…
```
## [1] 32
```

```r
#2.
rodents %>% 
  filter(wgt > 85 & sex == "M") %>% 
  select(species, censusdate, wgt) %>% 
  arrange(-wgt) %>% 
  drop_na(species) 
```

```
## # A tibble: 307 × 3
##    species censusdate   wgt
##    <chr>   <date>     <dbl>
##  1 DS      1981-11-22   170
##  2 DS      1980-03-21   160
##  3 DS      1979-10-24   156
##  4 DS      1981-12-30   155
##  5 DS      1981-09-29   153
##  6 DS      1982-02-22   150
##  7 DS      1980-08-13   149
##  8 DS      1980-10-11   149
##  9 DS      1980-11-08   149
## 10 DS      1981-01-11   148
## # … with 297 more rows
```
…
---

The real power comes in where `group_by()` and `summarize()` are used together. First, write the `group_by()` statement. Then pipe the result to a call to `summarize()`.

```r
#Let's summarize the mean hindfood length of the different species
rodents %>% 
  group_by(species) %>% 
  summarize(hfl = mean(hfl, na.rm = TRUE))
```

```
## # A tibble: 21 × 2
##    species   hfl
##    <chr>   <dbl>
##  1 BA       13.1
##  2 DM       35.9
##  3 DO       35.5
##  4 DS       49.7
##  5 OL       20.3
##  6 OT       20.0
##  7 PB       26.0
##  8 PE       19.9
##  9 PF       15.4
## 10 PH       24.9
## # … with 11 more rows
```

```r
rodents %>% 
  group_by(species) %>% 
  summarize(hfl = mean(hfl, na.rm = TRUE)) %>% 
  arrange(-hfl)
```

```
## # A tibble: 21 × 2
##    species   hfl
##    <chr>   <dbl>
##  1 DS       49.7
##  2 DM       35.9
##  3 DO       35.5
##  4 <NA>     32.2
##  5 SH       28.7
##  6 PB       26.0
##  7 SO       25.9
##  8 SF       25.8
##  9 PH       24.9
## 10 PI       21.8
## # … with 11 more rows
```
…
